{
  "apps": [
    {
      "title": "Cambio de Catalogo",
      "icon": "user",
      "color": "#005286",
      "buttons": [
        {
          "text": "Nuevo cambio",
          "link": "/cambiocatalogo"
        },
        {
          "text": "Calendario",
          "link": "/calendario/#/cambiocatalogo"
        }
      ]
    },
    {
      "title": "Encuesta 1",
      "icon": "poll",
      "color": "#005286",
      "buttons": [
        {
          "text": "Nueva encuesta",
          "link": "/encuesta/#/encuesta1"
        },
        {
          "text": "Dashboard",
          "link": "/dashboard/#/encuesta1"
        }
      ]
    },
    {
      "title": "Visión 2030",
      "icon": "poll",
      "color": "#c23b22",
      "buttons": [
        {
          "text": "Nueva encuesta",
          "link": "/encuesta/#/V2030"
        },
        {
          "text": "Dashboard",
          "link": "/dashboard/#/V2030"
        }
      ]
    },
    {
      "title": "Bancos XML",
      "icon": "chart-area",
      "color": "#005286",
      "buttons": [
        {
          "text": "Ir",
          "link": "/bancos"
        }
      ]
    },
    {
      "title": "Confirmacion de procesos",
      "icon": "check-square",
      "color": "#005286",
      "buttons": [
        {
          "text": "Ir",
          "link": "/confirmacionproceso"
        },
        {
          "text": "Planificador",
          "link": "/planificadorproceso"
        },
        {
          "text": "Historico",
          "link": "/calendario/#/confirmacionesproceso"
        }
      ]
    },
    {
      "title": "Portal no conformidades",
      "icon": "check-square",
      "color": "#005286",
      "buttons": [
        {
          "text": "Confirmaciones de proceso",
          "link": "/noconformidades/#/confirmacionesproceso"
        }
      ]
    }
  ]
}

